…
```yaml
type: "FullSlide"
```

`@part1`
```{r}
tidier_framingham %>%
    count(cigarettes_per_day)
```
{{1}}

```
# A tibble: 46 x 2
   cigarettes_per_day     n
                <dbl> <int>
 1                  0  6598
 2                  1   162
 3                  2    98
 4                  3   183
 5                  4    65
 6                  5   181
 7                  6    77
 8                  7    47
 9                  8    52
10                  9   149
# … with 36 more rows
```
…
